<?xml version="1.0" encoding="UTF-8"?>
<svg width="163px" height="163px" viewBox="0 0 163 163" version="1.1" xmlns="http://www.w3.org/2000/svg" xmlns:xlink="http://www.w3.org/1999/xlink">
    <!-- Generator: Sketch 46.2 (44496) - http://www.bohemiancoding.com/sketch -->
    <title>Map Icon</title>
    <desc>Created with Sketch.</desc>
    <defs></defs>
    <g id="Home" stroke="none" stroke-width="1" fill="none" fill-rule="evenodd" stroke-linecap="round" stroke-linejoin="round">
        <g id="Map-Icon" transform="translate(3.000000, 2.000000)" stroke="#999999">
            <path d="M52.9954246,135.911177 L1.35337421,158.504823 C0.77828978,158.756506 0.134142095,158.335485 0.134142095,157.707939 L0.134142095,23.0325962 C0.134142095,21.375078 1.16212211,19.8915461 2.71405318,19.309821 L52.9954246,0.454223728 L52.9954246,135.911177 Z" id="Stroke-1" stroke-width="4.404"></path>
            <path d="M52.9954246,125.999936 L10.5089042,144.587913 C10.0360866,144.794438 9.50615887,144.447794 9.50615887,143.931812 L9.50615887,29.616184 C9.50615887,28.2521846 10.3521838,27.0316244 11.6285259,26.5528301 L52.9954246,11.0408241 L52.9954246,125.999936 Z" id="Stroke-3" stroke-width="3.623"></path>
            <path d="M52.9954246,10.3654652 L36.0364106,17.158899 L36.0364106,47.1077819 C36.0364106,64.2162116 25.800439,79.6644668 10.0453835,86.3337196 L10.0453835,103.572307 L52.9954246,83.4828681 L52.9954246,10.3654652 Z M10.0453835,144.587913 L52.9954246,125.999936 L52.9954246,96.6985207 L10.0453835,116.787296 L10.0453835,144.587913 Z M148.806748,15.0478212 C148.806748,14.561058 148.304047,14.237656 147.861113,14.4382051 L105.856707,33.4923592 L105.856707,47.6808741 C114.50688,42.0097182 126.23236,42.9719553 133.834631,50.5748902 C142.543906,59.2841653 142.543906,73.404281 133.834631,82.1128921 C131.392182,84.5560048 128.522737,86.3051646 125.466688,87.3723247 C124.622655,87.6671717 114.727351,92.1104626 105.856707,95.1147143 L105.856707,102.643273 L148.806748,83.0425898 L148.806748,15.0478212 Z M105.856707,145.823083 L148.806748,125.250201 L148.806748,96.2582424 L105.856707,115.858262 L105.856707,145.823083 Z" id="Stroke-4" stroke-width="3"></path>
            <path d="M153.341681,2.17615666 L105.856707,23.5811178 L105.856707,47.6808741 C114.50688,42.0097182 126.23236,42.9719553 133.834631,50.5748902 C142.543906,59.2841653 142.543906,73.404281 133.834631,82.1128921 C131.392182,84.5560048 128.522737,86.3051646 125.466688,87.3723247 C124.622655,87.6671717 114.727351,92.1104626 105.856707,95.1147143 L105.856707,155.734324 L153.787935,134.134126 C156.166633,133.094193 157.703291,130.74405 157.703291,128.147537 L157.703291,5.0296645 C157.703291,2.78378051 155.398969,1.27634211 153.341681,2.17615666 Z" id="Stroke-5" stroke-width="4.404"></path>
            <polyline id="Stroke-6" stroke-width="3" points="106.802342 32.9704004 148.806748 13.9162463 149.752383 124.728242 106.802342 145.301124"></polyline>
            <path d="M97.0411807,58.9361928 C98.1070127,55.8827999 99.8555084,53.0160107 102.296629,50.5748902 C103.402969,49.46855 104.598295,48.5063129 105.856707,47.6808741 L105.856707,23.5811178 L52.9954246,0.454223728 L52.9954246,135.911177 L105.856707,155.734324 L105.856707,95.1147143 L79.4260658,106.176789 C79.4260658,106.176789 96.2974226,61.0678568 97.0411807,58.9361928 Z" id="Stroke-7" stroke-width="4.404"></path>
            <path d="M125.466688,87.3723247 C128.522737,86.3051646 131.392182,84.5560048 133.834631,82.1128921 C142.543906,73.404281 142.543906,59.2841653 133.834631,50.5748902 C125.12602,41.8656151 111.005904,41.8656151 102.296629,50.5748902 C99.8555084,53.0160107 98.1070127,55.8827999 97.0411807,58.9361928 C96.4282443,60.6919933 80.0396663,105.371936 80.0396663,105.371936 C80.0396663,105.371936 124.038273,87.8703771 125.466688,87.3723247 Z M124.805938,73.7741679 C120.935739,77.6443666 114.659616,77.6443666 110.789417,73.7741679 C106.918555,69.9033052 106.918555,63.6278458 110.789417,59.756983 C114.659616,55.8861203 120.935739,55.8861203 124.805938,59.756983 C128.676801,63.6278458 128.676801,69.9033052 124.805938,73.7741679 Z M79.4260658,106.176789 L105.856707,95.1147143 L105.856707,145.823083 L52.9954246,125.999936 L52.9954246,10.3654652 L105.856707,33.4923592 L105.856707,47.6808741 C104.598295,48.5063129 103.402969,49.46855 102.296629,50.5748902 C99.8555084,53.0160107 98.1070127,55.8827999 97.0411807,58.9361928 C96.2974226,61.0678568 79.4260658,106.176789 79.4260658,106.176789 Z M79.4260658,106.176789 L95.730307,99.1349927 L105.856707,102.873041 L105.856707,116.08803 L89.3379713,109.893587 L89.3379713,139.627976 L79.4260658,135.911177 L79.4260658,106.176789 L52.9954246,96.2655472 L52.9954246,83.0498946 L79.4260658,92.9618001 L79.4260658,21.9289122 L89.3379713,26.2652879 L89.3379713,79.6518495 C87.0641964,85.928637 79.4260658,106.176789 79.4260658,106.176789 Z" id="Stroke-9" stroke-width="3"></path>
        </g>
    </g>
</svg>